{
  "project_info": {
    "project_number": "1055344058414",
    "project_id": "casa-333c5",
    "storage_bucket": "casa-333c5.appspot.com"
  },
  "client": [
    {
      "client_info": {
        "mobilesdk_app_id": "1:1055344058414:android:c2dbd651ec053879eb7fbf",
        "android_client_info": {
          "package_name": "com.primelabs.casa_home"
        }
      },
      "oauth_client": [
        {
          "client_id": "1055344058414-3o0srh0p1du6r70p5f3o7pqeol0sgekp.apps.googleusercontent.com",
          "client_type": 1,
          "android_info": {
            "package_name": "com.primelabs.casa_home",
            "certificate_hash": "9ec37510dc8c8c8c6ecea271342d553ce9b371cf"
          }
        },
        {
          "client_id": "1055344058414-i43rsmbjj93qjg08libocks7n8ked4kt.apps.googleusercontent.com",
          "client_type": 1,
          "android_info": {
            "package_name": "com.primelabs.casa_home",
            "certificate_hash": "c3c92eb6157b19df4365325b47fb27edfd698c02"
          }
        },
        {
          "client_id": "1055344058414-ir9ukju86t0kc12ohet63kegkjpct1eb.apps.googleusercontent.com",
          "client_type": 3
        }
      ],
      "api_key": [
        {
          "current_key": "AIzaSyCj3VpxptBGQ-Dc2-O5XFSp1BgdGCtBwvQ"
        }
      ],
      "services": {
        "appinvite_service": {
          "other_platform_oauth_client": [
            {
              "client_id": "1055344058414-ir9ukju86t0kc12ohet63kegkjpct1eb.apps.googleusercontent.com",
              "client_type": 3
            }
          ]
        }
      }
    },
    {
      "client_info": {
        "mobilesdk_app_id": "1:1055344058414:android:b79464d61b48d95feb7fbf",
        "android_client_info": {
          "package_name": "com.primelabs.casa_pro"
        }
      },
      "oauth_client": [
        {
          "client_id": "1055344058414-aub92apmjejg1ln87ibqntqgimnrvb88.apps.googleusercontent.com",
          "client_type": 1,
          "android_info": {
            "package_name": "com.primelabs.casa_pro",
            "certificate_hash": "7d6ed5c48d88b4330ad1c4c5fb8dc32ad1453f19"
          }
        },
        {
          "client_id": "1055344058414-jfsk6c2e4csh1rhfmvu7i21ss6053lcq.apps.googleusercontent.com",
          "client_type": 1,
          "android_info": {
            "package_name": "com.primelabs.casa_pro",
            "certificate_hash": "9ec37510dc8c8c8c6ecea271342d553ce9b371cf"
          }
        },
        {
          "client_id": "1055344058414-ir9ukju86t0kc12ohet63kegkjpct1eb.apps.googleusercontent.com",
          "client_type": 3
        }
      ],
      "api_key": [
        {
          "current_key": "AIzaSyCj3VpxptBGQ-Dc2-O5XFSp1BgdGCtBwvQ"
        }
      ],
      "services": {
        "appinvite_service": {
          "other_platform_oauth_client": [
            {
              "client_id": "1055344058414-ir9ukju86t0kc12ohet63kegkjpct1eb.apps.googleusercontent.com",
              "client_type": 3
            }
          ]
        }
      }
    }
  ],
  "configuration_version": "1"
}